%YAML 1.1
%TAG !u! tag:unity3d.com,2011:
--- !u!1045 &1
EditorBuildSettings:
  m_ObjectHideFlags: 0
  serializedVersion: 2
  m_Scenes:
  - enabled: 1
    path: Assets/Week7/Scenes/Week7_Menu.unity
    guid: 0b2c2da8c7767c545a7a92a164566ecc
  - enabled: 1
    path: Assets/Week7/Scenes/Week7_MainMenu.unity
    guid: f8b96d3bb2401a2419bdb7e150ade0cc
  - enabled: 1
    path: Assets/Week7/Scenes/Week7_Level01.unity
    guid: f551d8fca2aa46c47af97da2fbdfc477
  - enabled: 1
    path: Assets/Week7/Scenes/Week7_Level02.unity
    guid: 370e9614a4e1b8e4badbccd56731f0e4
  - enabled: 1
    path: Assets/Week7/Scenes/Week7_Level03.unity
    guid: e9653ffdaf773724d9bcce0cf57deba5
  - enabled: 1
    path: Assets/Week7/Scenes/Week7_Options.unity
    guid: a28170805bad70a42a678461ee8b4ab4
  - enabled: 1
    path: Assets/Week7/Scenes/Week7_End.unity
    guid: 62efb6b5ff3fd0144bdb0f1784f7d575
  m_configObjects: {}
